<?xml version="1.0" encoding="UTF-8"?>
<session version="1.0">
<refactoring comment="Copy package &apos;com.ewolff.service&apos; to &apos;m04-your-first-aspect-start/src/main/java&apos;&#x0A;- Original project: &apos;m03-why-aop&apos;&#x0A;- Destination element: &apos;m04-your-first-aspect-start/src/main/java&apos;&#x0A;- Original element: &apos;m03-why-aop/src/main/java/com.ewolff.service&apos;" description="Copy package" destination="=m04-your-first-aspect-start/src\/main\/java" element1="/src\/main\/java&lt;com.ewolff.service" flags="589830" fragments="1" id="org.eclipse.jdt.ui.copy" policy="org.eclipse.jdt.ui.copyPackages" stamp="1474091931429" version="1.0"/>
</session>